R4EnvChemAnalysis - PhD Course - 2 Data Visualisation
…
Tidy data: Each variable is a column, each column is a variable. Each observation is a row, each row is an observation. Each value is a cell, each cell is a single value.

2.3.1 Pipes

Is a way to simplify R code. By using %>% (or |>, shortcut: ctrl+shift+m) code can be rewritten to become easier interpretated. The symbol can be thought of as a “+” symbol.

For example, if you would like to only have the concentrations of PFOS in Data_Kumla above 100 ng/L. Instead of having to use For loops and/or if statements or other type of commands, it can simply be written using pipe operations:

library(tidyverse)
PFOS_above100 <- Data_Kumla |> select(PFOS)|> filter(PFOS>100)
#or use %>% instead of |>, first requires paranthesis when calling functions, second does not
PFOS_above100

# A tibble: 65 × 1
    PFOS
   <dbl>
 1  229.
 2  140.
 3 1045.
 4  442.
 5  540.
 6  223.
 7  976.
 8  559.
 9  830.
10  162.
# ℹ 55 more rows
…
