R4EnvChemAnalysis - PhD Course - 3 Data Analysis
…
##DID NOT WORK AS INTENDEN DUE TO THE FORMAT OF THE EXCEL SHEET##########
drugmix |> 
  pivot_longer(cols = c(`detector count...13`, `detector count...20`, `detector count...27`, `detector count...34`,`detector count...41`),
                            names_to = "detectorcoun_comb",
                            values_to = "Intensities") 

# A tibble: 105 × 53
   Compound           Class Formula Monoisomass Theor_adduct_mz `Theor. [M+Na]+`
   <chr>              <chr> <chr>         <dbl>           <dbl>            <dbl>
 1 3,4-methylenediox… Anal… C10H13…        179.            180.             202.
 2 3,4-methylenediox… Anal… C10H13…        179.            180.             202.
 3 3,4-methylenediox… Anal… C10H13…        179.            180.             202.
 4 3,4-methylenediox… Anal… C10H13…        179.            180.             202.
 5 3,4-methylenediox… Anal… C10H13…        179.            180.             202.
 6 6-acetylmorphine   Anal… C19H21…        327.            328.             350.
 7 6-acetylmorphine   Anal… C19H21…        327.            328.             350.
 8 6-acetylmorphine   Anal… C19H21…        327.            328.             350.
 9 6-acetylmorphine   Anal… C19H21…        327.            328.             350.
10 6-acetylmorphine   Anal… C19H21…        327.            328.             350.
# ℹ 95 more rows
# ℹ 47 more variables: `Theor. [M+NH4]+` <dbl>,
#   `UNIFI - HDMSe-destemp450_240320` <lgl>, `m/z...9` <dbl>,
#   `RT [min]...10` <dbl>, DT...11 <dbl>, CCS...12 <dbl>, mode...14 <chr>,
#   Mass_acc <dbl>, `UNIFI - HDMSe-gradientchange_240320` <lgl>,
#   `m/z...16` <dbl>, `RT [min]...17` <dbl>, DT...18 <dbl>, CCS...19 <dbl>,
#   mode...21 <chr>, Mass_acc2 <dbl>, …
…
